…
```r
has_hair_gender_tatooine <- group_packs(
  hair_gender_tatooine = . %>%
    group_by(hair_color, gender) %>%
    summarise(has_tatooine = any(homeworld == "Tatooine")),
  .group_vars = c("hair_color", "gender"),
  .group_sep = "__"
)

starwars %>%
  expose(has_hair_gender_tatooine) %>%
  get_report()
## Tidy data validation report:
## # A tibble: 12 x 5
##                   pack         rule                 var    id value
##                  <chr>        <chr>               <chr> <int> <lgl>
## 1 hair_gender_tatooine has_tatooine      auburn__female     0 FALSE
## 2 hair_gender_tatooine has_tatooine  auburn, grey__male     0 FALSE
## 3 hair_gender_tatooine has_tatooine auburn, white__male     0 FALSE
## 4 hair_gender_tatooine has_tatooine      blonde__female     0 FALSE
## 5 hair_gender_tatooine has_tatooine          grey__male     0 FALSE
## # ... with 7 more rows
```
…
■ _Has character appeared in enough films?_ As character is defined by row, this is a row pack.

```r
has_enough_films <- row_packs(
  enough_films = . %>% transmute(is_enough = map_int(films, length) >= 3)
)

starwars %>%
  expose(has_enough_films) %>%
  get_report() %>%
  left_join(y = starwars %>% transmute(id = 1:n(), name),
            by = "id") %>%
  print(.validate = FALSE)
## Tidy data validation report:
## # A tibble: 64 x 6
##           pack      rule   var    id value              name
##          <chr>     <chr> <chr> <int> <lgl>             <chr>
## 1 enough_films is_enough  .all     8 FALSE             R5-D4
## 2 enough_films is_enough  .all     9 FALSE Biggs Darklighter
## 3 enough_films is_enough  .all    12 FALSE    Wilhuff Tarkin
## 4 enough_films is_enough  .all    15 FALSE            Greedo
## 5 enough_films is_enough  .all    18 FALSE  Jek Tono Porkins
## # ... with 59 more rows
```
…
  .tbl[, setdiff(colnames(.tbl), bad_cols)]
}

starwars %>%
  expose(
    col_packs(
      . %>% summarise_if(is.numeric, rules(mean(., na.rm = TRUE) >= 100))
    )
  ) %>%
  act_after_exposure(
    .trigger = any_breaker,
    .actor = remove_bad_cols
  ) %>%
  remove_exposure()
## # A tibble: 87 x 11
##             name height hair_color  skin_color eye_color gender homeworld
##            <chr>  <int>      <chr>       <chr>     <chr>  <chr>     <chr>
## 1 Luke Skywalker    172      blond        fair      blue   male  Tatooine
## 2          C-3PO    167       <NA>        gold    yellow   <NA>  Tatooine
## 3          R2-D2     96       <NA> white, blue       red   <NA>     Naboo
## 4    Darth Vader    202       none       white    yellow   male  Tatooine
## 5    Leia Organa    150      brown       light     brown female  Alderaan
## # ... with 82 more rows, and 4 more variables: species <chr>,
## #   films <list>, vehicles <list>, starships <list>
```
…
