Mythical Generic Overhead – Evgeni Chasnovski
…
The result has the following structure:

overhead_bench
## # A tibble: 630 x 4
##    n_class class_id method  time
##      <int>    <int>  <chr> <dbl>
##  1       1        1     if 0.529
##  2       1        1 switch 0.381
##  3       1        1    gen 0.820
##  4       2        1     if 0.521
##  5       2        1 switch 0.396
##  6       2        1    gen 0.811
##  7       2        2     if 0.961
##  8       2        2 switch 0.544
##  9       2        2    gen 1.029
## 10       3        1     if 0.554
## # ... with 620 more rows
…
