…
# Custom `mtcars` for more clear explanation
mtcars_tbl <- mtcars %>%
  select(mpg, vs, am) %>%
  as_tibble()

# A handy way of creating function with one argument
modify <- . %>%
  mutate(vs_am = vs * am) %>%
  filter(vs_am == 1) %>%
  arrange(desc(mpg))

# The question is: which rows of `mtcars_tbl` are returned?
mtcars_tbl %>% modify()
## # A tibble: 7 x 4
##     mpg    vs    am vs_am
##   <dbl> <dbl> <dbl> <dbl>
## 1  33.9     1     1     1
## 2  32.4     1     1     1
## 3  30.4     1     1     1
## 4  30.4     1     1     1
## 5  27.3     1     1     1
## # ... with 2 more rows
```
…
The main idea of package is to create S3 class `keyed_df`, which indicates that original data frame (or tibble) should have attribute `keys`. "Key" is __any vector__ (even list) of the same length as number of rows in data frame. Keys are stored as tibble in attribute `keys` and so one data frame can have multiple keys. In other words, keys can be considered as __columns of data frame which are hidden from subsetting functions but are updated according to them__.

To achieve that, those functions should be generic and have method for `keyed_df` implemented. Look [here](https://echasnovski.github.io/keyholder/reference/keyholder-supported-funs.html) for the list of functions supported by `keyholder`. As for version `0.1.1` they are all one- and two-table `dplyr` verbs for local data frames and `[` function.

# Create and manipulate keys

There are two distinct ways of creating keys: by assigning and by using existing columns:

```r
# By assigning
mtcars_tbl_1 <- mtcars_tbl
keys(mtcars_tbl_1) <- tibble(rev_id = nrow(mtcars_tbl_1):1)
mtcars_tbl_1
## # A keyed object. Keys: rev_id
## # A tibble: 32 x 3
##     mpg    vs    am
## * <dbl> <dbl> <dbl>
## 1  21.0     0     1
## 2  21.0     0     1
## 3  22.8     1     1
## 4  21.4     1     0
## 5  18.7     0     0
## # ... with 27 more rows

# By using existing columns
mtcars_keyed <- mtcars_tbl %>% key_by(vs)
mtcars_keyed
## # A keyed object. Keys: vs
## # A tibble: 32 x 3
##     mpg    vs    am
## * <dbl> <dbl> <dbl>
## 1  21.0     0     1
## 2  21.0     0     1
## 3  22.8     1     1
## 4  21.4     1     0
## 5  18.7     0     0
## # ... with 27 more rows
```

To get keys use `keys()` (which always returns tibble) or `pull_key()` (similar to `dplyr::pull()` but for keys):

```r
mtcars_keyed %>% keys()
## # A tibble: 32 x 1
##      vs
## * <dbl>
## 1     0
## 2     0
## 3     1
## 4     1
## 5     0
## # ... with 27 more rows

mtcars_keyed %>% pull_key(vs)
##  [1] 0 0 1 1 0 1 0 1 1 1 1 0 0 0 0 0 0 1 1 1 1 0 0 0 0 1 0 1 0 0 0 1
```

To restore keys (create respective columns in data frame) use `restore_keys()`:

```r
# Column `vs` didn't change in output because it was restored from keys
mtcars_keyed %>%
  mutate(vs = 2) %>%
  restore_keys(vs)
## # A keyed object. Keys: vs
## # A tibble: 32 x 3
##     mpg    vs    am
##   <dbl> <dbl> <dbl>
## 1  21.0     0     1
## 2  21.0     0     1
## 3  22.8     1     1
## 4  21.4     1     0
## 5  18.7     0     0
## # ... with 27 more rows
```

To end having keys use `unkey()`:

```r
mtcars_keyed %>% unkey()
## # A tibble: 32 x 3
##     mpg    vs    am
## * <dbl> <dbl> <dbl>
## 1  21.0     0     1
## 2  21.0     0     1
## 3  22.8     1     1
## 4  21.4     1     0
## 5  18.7     0     0
## # ... with 27 more rows
```
…
## Restore information

During development of tools for data analysis one can have a need to ensure that certain columns don't change after application of some function. This can be achieved by keying those columns and restoring them later (__note__ that this can change the order of columns.):

```r
weird_modify <- . %>% transmute(new_col = vs + 2 * am)

# Suppose there is a need for all columns to stay untouched in the output
mtcars_tbl %>%
  key_by(everything()) %>%
  weird_modify() %>%
  # This can be replaced by its scoped variant: restore_keys_all()
  restore_keys(everything()) %>%
  unkey()
## # A tibble: 32 x 4
##   new_col   mpg    vs    am
##     <dbl> <dbl> <dbl> <dbl>
## 1       2  21.0     0     1
## 2       2  21.0     0     1
## 3       3  22.8     1     1
## 4       1  21.4     1     0
## 5       0  18.7     0     0
## # ... with 27 more rows
```

## Hide columns

In actual data analysis the following situation can happen: one should modify all but handful of columns with `dplyr::mutate_if()`.

```r
is_integerish <- function(x) {all(x == as.integer(x))}

if_modify <- . %>% mutate_if(is_integerish, ~ . * 10)

mtcars_tbl %>% if_modify()
## # A tibble: 32 x 3
##     mpg    vs    am
##   <dbl> <dbl> <dbl>
## 1  21.0     0    10
## 2  21.0     0    10
## 3  22.8    10    10
## 4  21.4    10     0
## 5  18.7     0     0
## # ... with 27 more rows
```

Suppose column `vs` should appear unchanged in the output. This can be achieved in several ways, which differ slightly but significantly. The first one is to key by `vs`, apply function and restore `vs` from keys.

```r
mtcars_tbl %>%
  key_by(vs) %>%
  if_modify() %>%
  restore_keys(vs)
## # A keyed object. Keys: vs
## # A tibble: 32 x 3
##     mpg    vs    am
##   <dbl> <dbl> <dbl>
## 1  21.0     0    10
## 2  21.0     0    10
## 3  22.8     1    10
## 4  21.4     1     0
## 5  18.7     0     0
## # ... with 27 more rows
```

The advantage is that it doesn't change the order of columns. The disadvantage is that it actually applies modification function to column, which can be undesirable in some cases.

The second approach is similar, but after keying by `vs` one can remove this column from data frame. This way column `vs` is moved to last column.

```r
mtcars_hidden_vs <- mtcars_tbl %>% key_by(vs, .exclude = TRUE)

mtcars_hidden_vs
## # A keyed object. Keys: vs
## # A tibble: 32 x 2
##     mpg    am
## * <dbl> <dbl>
## 1  21.0     1
## 2  21.0     1
## 3  22.8     1
## 4  21.4     0
## 5  18.7     0
## # ... with 27 more rows

mtcars_hidden_vs %>%
  if_modify() %>%
  restore_keys(vs)
## # A keyed object. Keys: vs
## # A tibble: 32 x 3
##     mpg    am    vs
##   <dbl> <dbl> <dbl>
## 1  21.0    10     0
## 2  21.0    10     0
## 3  22.8    10     1
## 4  21.4     0     1
## 5  18.7     0     0
## # ... with 27 more rows
```
…
