Tao of Tidygraph – Evgeni Chasnovski
…
edges_peace <- ttp_edges %>%
  transmute(
    from = if_else(type == "ally", chapter1, chapter2),
    to = if_else(type == "ally", chapter2, chapter1)
  )

tbl_graph(
  nodes = ttp_chapters, edges = edges_peace, directed = TRUE
) %>%
  activate(nodes) %>%
  mutate(centr = centrality_pagerank()) %>%
  as_tibble() %>%
  arrange(desc(centr))
## # A tibble: 81 x 3
##   chapter name                    centr
##     <int> <chr>                   <dbl>
## 1      63 Dance the Debug 2-Step 0.0403
## 2       4 Carve Reality          0.0346
## 3      61 Think Safety           0.0324
## 4       8 Procrastinate          0.0313
## 5      37 Become a Ghost         0.0291
## # ... with 76 more rows
…
