Combined outlier detection with dplyr and ruler – Evgeni Chasnovski
…
data_tbl <- diamonds %>%
  unite(col = "group", cut, color, clarity)

compute_group_non_outliers <- . %>%
  # Compute per group mean values of columns
  group_by(group) %>%
  summarise_if(is.numeric, mean) %>%
  ungroup() %>%
  # Detect outliers among groups
  mutate_if(is.numeric, isnt_out_funs) %>%
  # Remove unnecessary columns
  select_if(Negate(is.numeric))

data_tbl %>% compute_group_non_outliers()
## # A tibble: 276 x 22
##        group carat_z depth_z table_z price_z   x_z   y_z   z_z carat_mad
##        <chr>   <lgl>   <lgl>   <lgl>   <lgl> <lgl> <lgl> <lgl>     <lgl>
## 1  Fair_D_I1   FALSE    TRUE    TRUE    TRUE  TRUE  TRUE  TRUE     FALSE
## 2  Fair_D_IF    TRUE    TRUE    TRUE    TRUE  TRUE  TRUE  TRUE      TRUE
## 3 Fair_D_SI1    TRUE    TRUE    TRUE    TRUE  TRUE  TRUE  TRUE      TRUE
## 4 Fair_D_SI2    TRUE    TRUE    TRUE    TRUE  TRUE  TRUE  TRUE      TRUE
## 5 Fair_D_VS1    TRUE    TRUE    TRUE    TRUE  TRUE  TRUE  TRUE      TRUE
## # ... with 271 more rows, and 13 more variables: depth_mad <lgl>,
## #   table_mad <lgl>, price_mad <lgl>, x_mad <lgl>, y_mad <lgl>,
## #   z_mad <lgl>, carat_tukey <lgl>, depth_tukey <lgl>, table_tukey <lgl>,
## #   price_tukey <lgl>, x_tukey <lgl>, y_tukey <lgl>, z_tukey <lgl>
…
Tibble outliers contains data about outlier rows. Combination of columns pack and rule defines non-outlier/outlier definition approach and column id defines row number of input data frame that should be considered an outlier based on the definition.

Definitions with most outliers are as follows:

outliers %>%
  count(pack, rule, sort = TRUE)
## # A tibble: 37 x 3
##     pack        rule     n
##    <chr>       <chr> <int>
## 1   maha    maha_mad  6329
## 2   maha  maha_tukey  5511
## 3 column   price_mad  5386
## 4 column price_tukey  3540
## 5 column   table_mad  2560
## # ... with 32 more rows
…
Based on those plots we see the complicated nature of “strong outliers”. They are not necessary located “on the edge” of two-dimensional scatter plots, but most extreme cases are tagged as outliers.

Also one interesting observation: most outliers are concentrated in the combination of “Fair” cut, “J” colour and “I1” clarity which are worst options among their features. The reason of this effect is group-based definitions of non-outliers which tagged certain groups more than others:

breaker_report %>%
  filter(pack == "group") %>%
  count(var, sort = TRUE) %>%
  print(n = 10)
## # A tibble: 47 x 2
##            var     n
##          <chr> <int>
##  1   Fair_D_I1     7
##  2   Fair_J_I1     7
##  3 Fair_H_VVS1     6
##  4  Ideal_J_I1     6
##  5 Fair_J_VVS1     5
##  6 Fair_G_VVS1     4
##  7 Fair_D_VVS1     3
##  8   Fair_E_I1     3
##  9   Fair_F_I1     3
## 10   Fair_H_I1     3
## # ... with 37 more rows
…
