Animating mode variability with tidyverse and tweenr – Evgeni Chasnovski
…
Considering future parallel animation, I decided to organize data “per plot”. That is: one tibble contains information about one sample for every distribution and multiple samples should be stored in list. Function generate_data() creates one tibble, which in combination with purrr::rerun() can create a list of grouped samples. Note that, for reasonable results, numbers in value columns should be rounded.

sample_data <- rerun(10, generate_data(r_funs, n_sample))

# One set of samples for examples
distr_data <- sample_data[[1]] %>% mutate(value = round(value, 2))
distr_data
## # A tibble: 3,000 x 2
##   distr value
##   <chr> <dbl>
## 1 runif  0.46
## 2 runif  0.51
## 3 runif  0.47
## 4 runif  0.47
## 5 runif  0.4
## # ... with 2,995 more rows
…
x <dbl> : Coordinates of segment x axis (which is enough to define x coordinate of vertical segments).

y <dbl> : The y coordinate of lower end of a segment. To control this, supply factor distr column: different distributions will be plotted at integer y coordinates in order defined by factor levels (from bottom to top).

yend <dbl> : The y coordinate of upper end of a segment.

isMode <lgl> : Logical value indicating whether this segment represents mode value.

colour <chr> : Colour of the segment (red for modes, black for others).

size <dbl> : Size of the segment line (2 for modes, 1 for others).

get_plot_data(distr_data)
## # A tibble: 297 x 7
##   distr     x     y  yend isMode colour  size
##   <chr> <dbl> <int> <dbl> <lgl>  <chr>  <dbl>
## 1 rbeta 0.19      1  1.02 FALSE  black      1
## 2 rbeta 0.28      1  1.02 FALSE  black      1
## 3 rbeta 0.290     1  1.02 FALSE  black      1
## 4 rbeta 0.32      1  1.02 FALSE  black      1
## 5 rbeta 0.33      1  1.02 FALSE  black      1
## # ... with 292 more rows
get_plot_data(distr_data, mode_thres = 0.01)
## # A tibble: 297 x 7
##   distr     x     y  yend isMode colour  size
##   <chr> <dbl> <int> <dbl> <lgl>  <chr>  <dbl>
## 1 rbeta 0.19      1  1.02 TRUE   red        2
## 2 rbeta 0.28      1  1.02 TRUE   red        2
## 3 rbeta 0.290     1  1.02 TRUE   red        2
## 4 rbeta 0.32      1  1.02 TRUE   red        2
## 5 rbeta 0.33      1  1.02 TRUE   red        2
## # ... with 292 more rows
distr_data %>%
  mutate(distr = factor(distr, levels = c("runif", "rnorm", "rbeta"))) %>%
  get_plot_data()
## # A tibble: 297 x 7
##   distr     x     y  yend isMode colour  size
##   <fct> <dbl> <int> <dbl> <lgl>  <chr>  <dbl>
## 1 runif  0        1  1.28 FALSE  black      1
## 2 runif  0.01     1  1.39 FALSE  black      1
## 3 runif  0.02     1  1.51 FALSE  black      1
## 4 runif  0.03     1  1.51 FALSE  black      1
## 5 runif  0.04     1  1.45 FALSE  black      1
## # ... with 292 more rows
…
